{
	"config": {
		"path": "./app",
		"dest": "./dist",
		"port": "8082",
		"prefix": "my"
	},
	"libs": [
		"./node_modules/angular/angular.min.js",
		"./node_modules/@uirouter/angularjs/release/angular-ui-router.min.js",
		"./node_modules/angular-jwt/dist/angular-jwt.js",
		"./node_modules/angular-dynamic-locale/dist/tmhDynamicLocale.min.js",
		"./node_modules/angular-translate/dist/angular-translate.min.js",
		"./node_modules/angular-translate/dist/angular-translate-loader-static-files/angular-translate-loader-static-files.min.js",
		"./node_modules/messageformat/messageformat.min.js",
		"./node_modules/angular-translate/dist/angular-translate-interpolation-messageformat/angular-translate-interpolation-messageformat.min.js",
		"./node_modules/angular-translate/dist/angular-translate-storage-cookie/angular-translate-storage-cookie.min.js",
		"./node_modules/angular-local-storage/dist/angular-local-storage.min.js",
		"./node_modules/angular-cookies/angular-cookies.min.js",
		"./node_modules/angular-messages/angular-messages.min.js",
		"./node_modules/angular-recaptcha/release/angular-recaptcha.min.js",
		"./node_modules/angular-sanitize/angular-sanitize.min.js",
		"./node_modules/angular-animate/angular-animate.min.js",
		"./node_modules/angularjs-toaster/toaster.min.js",
		"./node_modules/angular-block-ui/dist/angular-block-ui.min.js",
		"./node_modules/angular-ui-bootstrap/dist/ui-bootstrap-tpls.js",
		"./node_modules/angular-input-masks/releases/angular-input-masks-standalone.min.js"
	],
	"styles": [
		"./node_modules/bootstrap/dist/css/bootstrap.min.css",
		"./node_modules/font-awesome/css/font-awesome.min.css",
		"./node_modules/angularjs-toaster/toaster.css",
		"./node_modules/angular-block-ui/dist/angular-block-ui.min.css"
	],
	"fonts": [
		"./node_modules/bootstrap/dist/fonts",
		"./node_modules/font-awesome/fonts"
	]
}